Tidy your time series analysis with tsibble
…
```r
us_flights %>% 
  index_by(
    dep_datehour = floor_date(sched_dep_datetime, unit = "hour")
  ) %>% 
  summarise(avg_delay = mean(dep_delay))
```

```
#> # A tsibble: 8,004 x 2 [1h]
#>   dep_datehour        avg_delay
#>   <dttm>                  <dbl>
#> 1 2017-01-01 00:00:00    -0.367
#> 2 2017-01-01 01:00:00    19.5  
#> 3 2017-01-01 02:00:00     2.8  
#> 4 2017-01-01 05:00:00     6.71 
#> 5 2017-01-01 06:00:00     6.75 
#> 6 2017-01-01 07:00:00     6.83 
#> # ... with 7,998 more rows
```
…
```r
us_flights %>% 
* index_by(dep_datehour = floor_date(sched_dep_datetime, unit = "hour")) %>% 
* summarise(    
*   qtl50 = quantile(dep_delay, 0.5),
*   qtl80 = quantile(dep_delay, 0.8),
*   qtl95 = quantile(dep_delay, 0.95)
* )
```

```
#> # A tsibble: 8,004 x 4 [1h]
#>   dep_datehour        qtl50 qtl80 qtl95
#>   <dttm>              <dbl> <dbl> <dbl>
#> 1 2017-01-01 00:00:00  -3.5   2.6  17.5
#> 2 2017-01-01 01:00:00  -2    28.4 111. 
#> 3 2017-01-01 02:00:00  -7    21.6  23.4
#> 4 2017-01-01 05:00:00  -2     3    29.1
#> 5 2017-01-01 06:00:00  -3     2.2  39.8
#> 6 2017-01-01 07:00:00  -2     5    51  
#> # ... with 7,998 more rows
```
…
```
#> # A tsibble: 8,004 x 7 [1h]
#>   dep_datehour        qtl50 qtl80 qtl95  hour wday 
#>   <dttm>              <dbl> <dbl> <dbl> <int> <ord>
#> 1 2017-01-01 00:00:00  -3.5   2.6  17.5     0 Sun  
#> 2 2017-01-01 01:00:00  -2    28.4 111.      1 Sun  
#> 3 2017-01-01 02:00:00  -7    21.6  23.4     2 Sun  
#> 4 2017-01-01 05:00:00  -2     3    29.1     5 Sun  
#> 5 2017-01-01 06:00:00  -3     2.2  39.8     6 Sun  
#> 6 2017-01-01 07:00:00  -2     5    51       7 Sun  
#> # ... with 7,998 more rows, and 1 more variable:
#> #   date <date>
```
…
